<?xml version="1.0" encoding="UTF-8"?>
<svg id="Layer_1" data-name="Layer 1" xmlns="http://www.w3.org/2000/svg" viewBox="0 0 500.93 286.62">
  <defs>
    <style>
      .cls-1 {
        fill: #44afff;
      }

      .cls-2 {
        fill: #72a8ff;
      }

      .cls-3 {
        fill: #9fa1ff;
      }

      .cls-4 {
        fill: #39b1ff;
      }

      .cls-5 {
        fill: #7da6ff;
      }

      .cls-6 {
        fill: #5bacff;
      }

      .cls-7 {
        fill: #50adff;
      }

      .cls-8 {
        fill: #88a5ff;
      }

      .cls-9 {
        fill: #94a3ff;
      }

      .cls-10 {
        fill: #6af;
      }
    </style>
  </defs>
  <polygon class="cls-4" points="500.93 177.19 398.62 286.62 252.71 252.73 209.1 109.42 311.4 0 457.32 33.89 500.93 177.19"/>
  <polygon class="cls-1" points="463.94 182.35 365.23 285.9 226.19 252.2 185.87 114.94 284.57 11.38 423.61 45.09 463.94 182.35"/>
  <polygon class="cls-7" points="426.95 187.5 331.84 285.19 199.68 251.67 162.63 120.45 257.74 22.76 389.9 56.28 426.95 187.5"/>
  <polygon class="cls-6" points="389.96 192.65 298.44 284.48 173.16 251.13 139.4 125.97 230.92 34.14 356.2 67.48 389.96 192.65"/>
  <polygon class="cls-10" points="352.97 197.8 265.05 283.76 146.65 250.6 116.17 131.48 204.09 45.52 322.49 78.68 352.97 197.8"/>
  <polygon class="cls-2" points="315.98 202.96 231.66 283.05 120.13 250.07 92.93 136.99 177.26 56.9 288.78 89.88 315.98 202.96"/>
  <polygon class="cls-5" points="278.99 208.11 198.26 282.34 93.62 249.53 69.7 142.51 150.43 68.28 255.08 101.08 278.99 208.11"/>
  <polygon class="cls-8" points="242 213.26 164.87 281.62 67.1 249 46.47 148.02 123.6 79.66 221.37 112.28 242 213.26"/>
  <polygon class="cls-9" points="205.02 218.41 131.48 280.91 40.59 248.47 23.23 153.54 96.77 91.04 187.66 123.48 205.02 218.41"/>
  <polygon class="cls-3" points="153.96 134.68 168.03 223.57 98.08 280.19 14.07 247.94 0 159.05 69.94 102.42 153.96 134.68"/>
</svg>