<?xml version="1.0" encoding="UTF-8"?>
<svg id="Layer_1" data-name="Layer 1" xmlns="http://www.w3.org/2000/svg" viewBox="0 0 1117.09 526.39">
  <defs>
    <style>
      .cls-1 {
        fill: #fff;
        font-family: Aldrich-Regular, Aldrich;
        font-size: 60px;
      }

      .cls-2 {
        fill: #44afff;
      }

      .cls-3 {
        fill: #72a8ff;
      }

      .cls-4 {
        fill: #9fa1ff;
      }

      .cls-5 {
        fill: #39b1ff;
      }

      .cls-6 {
        fill: #7da6ff;
      }

      .cls-7 {
        fill: #56e08d;
      }

      .cls-8 {
        fill: #e0abff;
      }

      .cls-9 {
        fill: #5bacff;
      }

      .cls-10 {
        fill: #50adff;
      }

      .cls-11 {
        fill: #88a5ff;
      }

      .cls-12 {
        fill: #94a3ff;
      }

      .cls-13 {
        fill: #203e75;
      }

      .cls-14 {
        fill: #6af;
      }
    </style>
  </defs>
  <polygon class="cls-7" points="496.46 314.44 314.91 496.26 66.68 429.94 0 181.82 181.54 0 429.77 66.31 496.46 314.44"/>
  <polygon class="cls-13" points="743.31 374.79 588.58 389.47 498.5 262.82 563.14 121.47 717.87 106.78 807.96 233.44 743.31 374.79"/>
  <polygon class="cls-8" points="1012.11 466.67 889.25 416.39 871.37 284.85 976.34 203.59 1099.21 253.87 1117.09 385.41 1012.11 466.67"/>
  <g>
    <polygon class="cls-5" points="879.14 408.02 776.84 517.44 630.93 483.55 587.31 340.24 689.62 230.82 835.53 264.71 879.14 408.02"/>
    <polygon class="cls-2" points="842.15 413.17 743.45 516.72 604.41 483.02 564.08 345.76 662.79 242.2 801.82 275.91 842.15 413.17"/>
    <polygon class="cls-10" points="805.16 418.32 710.05 516.01 577.89 482.49 540.85 351.27 635.96 253.58 768.12 287.11 805.16 418.32"/>
    <polygon class="cls-9" points="768.18 423.47 676.66 515.3 551.38 481.95 517.61 356.79 609.13 264.96 734.41 298.3 768.18 423.47"/>
    <polygon class="cls-14" points="731.19 428.63 643.27 514.58 524.86 481.42 494.38 362.3 582.3 276.34 700.7 309.5 731.19 428.63"/>
    <polygon class="cls-3" points="694.2 433.78 609.87 513.87 498.35 480.89 471.15 367.81 555.47 287.72 667 320.7 694.2 433.78"/>
    <polygon class="cls-6" points="657.21 438.93 576.48 513.16 471.83 480.36 447.92 373.33 528.64 299.1 633.29 331.9 657.21 438.93"/>
    <polygon class="cls-11" points="620.22 444.08 543.09 512.44 445.32 479.82 424.68 378.84 501.82 310.48 599.58 343.1 620.22 444.08"/>
    <polygon class="cls-12" points="583.23 449.23 509.69 511.73 418.8 479.29 401.45 384.36 474.99 321.86 565.88 354.3 583.23 449.23"/>
    <polygon class="cls-4" points="532.17 365.5 546.24 454.39 476.3 511.02 392.29 478.76 378.22 389.87 448.16 333.24 532.17 365.5"/>
  </g>
  <text class="cls-1" transform="translate(458.2 378.04)"><tspan x="0" y="0" xml:space="preserve">    Digital</tspan><tspan x="0" y="72">Security AS</tspan></text>
</svg>