<?xml version="1.0" encoding="UTF-8"?>
<svg id="Layer_1" data-name="Layer 1" xmlns="http://www.w3.org/2000/svg" viewBox="0 0 1113.97 980">
  <defs>
    <style>
      .cls-1 {
        fill: #fff;
      }
    </style>
  </defs>
  <g>
    <circle cx="547" cy="490" r="490"/>
    <circle class="cls-1" cx="546.5" cy="489.5" r="420.5"/>
    <path d="M0,572c631.47,95.69,994.47,135.54,1089,119.57,47.17-7.97,27.5-29.83-59-65.6"/>
    <path d="M704.24,450.1c4.17-.26,8.35,.37,12.52,.06,.81-.06,1.5-.65,1.5-1.5,0-.77-.69-1.56-1.5-1.5-4.17,.31-8.35-.31-12.52-.06-.81,.05-1.5,.65-1.5,1.5,0,.77,.69,1.55,1.5,1.5h0Z"/>
  </g>
  <g>
    <path d="M269.97,534.15l.58-17.69v-170.38l-.58-17.69c-.59-8.46-1.9-14.16-3.95-17.12-2.05-2.94-4.98-4.74-8.78-5.38-3.81-.64-7.02-1.02-9.66-1.15-2.63-.13-4.93-.32-6.88-.58v-6.15s0,0,0,0h132.3v6.15l-13.76,1.54c-5.85,1.03-9.86,3.08-12,6.15-2.15,3.08-3.51,8.85-4.1,17.31l-.59,17.69v133.46c0,28.21-10.29,52.37-30.88,72.5-20.59,20.13-43.37,30.19-68.34,30.19-18.43,0-33.48-5.64-45.14-16.92-11.67-11.28-17.5-27.05-17.5-47.31,0-12.82,3.63-23.85,10.87-33.08,7.25-9.23,15.87-13.85,25.86-13.85,11.75,0,21.06,4.36,27.92,13.08,6.85,8.72,10.28,20.13,10.28,34.23,0,12.31-2.25,22.18-6.73,29.61-5.08,6.92-10.05,13.85-14.93,20.77,0,2.57,1.36,4.3,4.1,5.19,2.73,.9,6.15,1.35,10.24,1.35,8.39,0,14.1-4.29,17.12-12.88,3.02-8.59,4.54-18.27,4.54-29.04Z"/>
    <path d="M370.99,498.15l-9.68,32.49c-2.08,7.5-3.12,13.43-3.12,17.81,0,4.79,1.2,8.12,3.59,10,2.39,1.87,5.47,3.18,9.22,3.9,3.75,.73,7.39,1.2,10.93,1.41,3.54,.21,6.98,.42,10.31,.62v5h-88.41v-5l18.54-1.25c6.91-.83,12.15-2.55,15.71-5.15,3.56-2.6,6.23-5.88,8.01-9.84,1.78-3.95,3.77-8.64,5.97-14.06,2.2-5.41,4.03-10.31,5.5-14.68l59.67-178.69h34.36l65.92,178.69,9.68,24.37c2.91,6.46,5.88,11.09,8.9,13.9,3.02,2.81,7.23,4.64,12.65,5.47l12.81,1.25v5h-148.39s0-5,0-5c0,0,0,0,0,0,2.5,0,4.73-.05,6.72-.16,1.98-.1,5.57-.57,10.78-1.41,5.2-.83,8.95-1.92,11.25-3.28,2.29-1.35,3.44-4.22,3.44-8.59s-1.46-11.14-4.37-19.68l-11.25-33.11h-58.73Zm56.23-6.56l-27.49-76.85-26.55,76.85h54.05Z"/>
    <path d="M689.93,569.38l-152.76-.31v-5h9.69c4.37-.62,8.64-1.2,12.81-1.71,4.16-.52,7.44-2.08,9.84-4.68,2.39-2.6,3.9-7.22,4.53-13.88l.63-14.35v-147.86l-.63-14.35c-.62-6.65-2.19-11.33-4.69-14.04-2.5-2.7-5.99-4.36-10.46-4.99-4.48-.63-8.54-.99-12.18-1.09-3.65-.1-6.93-.26-9.84-.47v-5s144.33-.31,144.33-.31c19.57,0,34.88,.73,45.92,2.19,11.04,1.46,20.25,4.69,27.65,9.68,7.39,5,13.17,11.2,17.34,18.59,4.16,7.4,6.25,16.2,6.25,26.4,0,15.21-4.43,26.14-13.28,32.8-8.85,6.67-17.71,11.09-26.55,13.28-8.57,2.11-19.03,3.21-31.39,3.28-.69,0-1.25,.56-1.25,1.25h0c0,.69,.57,1.25,1.26,1.25,14.57,.03,25.55,.6,32.95,1.71,7.6,1.14,15.2,3.28,22.8,6.39,7.6,3.11,14.32,8.98,20.15,17.6,5.83,8.62,8.75,19.68,8.75,33.18s-3.02,24-9.06,32.72c-6.04,8.73-13.75,15.22-23.12,19.48-9.37,4.26-20.83,6.7-34.36,7.32-13.54,.62-25.3,.93-35.3,.93Zm-11.25-123.71c8.75-1.66,14.58-6.77,17.49-15.31,2.92-8.54,4.37-19.37,4.37-32.49,0-10.62-1.93-20.88-5.78-30.77-3.86-9.89-8.65-15.57-14.37-17.03-5.73-1.45-11.04-2.29-15.93-2.5-4.9-.2-9.22-.41-12.96-.63v100.91c3.95,0,7.97-.05,12.03-.16,4.06-.1,9.11-.78,15.15-2.03Zm11.56,114.66c6.87-1.66,11.82-8.21,14.84-19.63,3.02-11.42,4.53-23.36,4.53-35.82,0-11.21-2.34-22.17-7.03-32.86-4.69-10.7-10.36-16.46-17.03-17.29-6.67-.83-11.82-1.29-15.46-1.4-3.65-.1-6.4-.16-8.28-.16h-10.31v110.28h3.75c7.5,0,13.75-.15,18.74-.46,5-.31,10.41-1.2,16.25-2.65Z"/>
    <path d="M831.16,569.38l-152.76-.31v-5s9.69,0,9.69,0c4.37-.62,8.64-1.2,12.81-1.71,4.16-.52,7.44-2.08,9.84-4.68,2.39-2.6,3.9-7.22,4.53-13.88l.63-14.35v-147.86l-.63-14.35c-.62-6.65-2.19-11.33-4.69-14.04-2.5-2.7-5.99-4.36-10.46-4.99-4.48-.63-8.54-.99-12.18-1.09-3.65-.1-6.93-.26-9.84-.47v-5s144.33-.31,144.33-.31c19.57,0,34.88,.73,45.92,2.19,11.04,1.46,20.25,4.69,27.65,9.68,7.39,5,13.17,11.2,17.34,18.59,4.16,7.4,6.25,16.2,6.25,26.4,0,15.21-4.43,26.14-13.28,32.8-8.85,6.67-17.71,11.09-26.55,13.28-8.57,2.11-19.03,3.21-31.39,3.28-.69,0-1.25,.56-1.25,1.25h0c0,.69,.57,1.25,1.26,1.25,14.57,.03,25.55,.6,32.95,1.71,7.6,1.14,15.2,3.28,22.8,6.39,7.6,3.11,14.32,8.98,20.15,17.6,5.83,8.62,8.75,19.68,8.75,33.18s-3.02,24-9.06,32.72c-6.04,8.73-13.75,15.22-23.12,19.48-9.37,4.26-20.83,6.7-34.36,7.32-13.54,.62-25.3,.93-35.3,.93Zm-11.25-123.71c8.75-1.66,14.58-6.77,17.49-15.31,2.92-8.54,4.37-19.37,4.37-32.49,0-10.62-1.93-20.88-5.78-30.77-3.86-9.89-8.65-15.57-14.37-17.03-5.73-1.45-11.04-2.29-15.93-2.5-4.9-.2-9.22-.41-12.96-.63v100.91c3.95,0,7.97-.05,12.03-.16,4.06-.1,9.11-.78,15.15-2.03Zm11.56,114.66c6.87-1.66,11.82-8.21,14.84-19.63,3.02-11.42,4.53-23.36,4.53-35.82,0-11.21-2.34-22.17-7.03-32.86-4.69-10.7-10.36-16.46-17.03-17.29-6.67-.83-11.82-1.29-15.46-1.4-3.65-.1-6.4-.16-8.28-.16h-10.31v110.28h3.75c7.5,0,13.75-.15,18.74-.46,5-.31,10.41-1.2,16.25-2.65Z"/>
  </g>
</svg>